Functions and tidy evaluation
…
A good rule of thumb is to consider writing a function whenever you’ve copied and pasted a block of code more than twice (i.e. you now have three copies of the same code). We’ll learn about three useful types of functions:

Vector functions take one or more vectors as input and return a vector as output.

Data frame functions take a data frame as input and return a data frame as output.

Plot functions that take a data frame as input and return a plot as output.

# Initial packages required (we'll be adding more)
library(tidyverse)
library(nycflights13)
flights

# A tibble: 336,776 × 19
    year month   day dep_time sched_dep_time dep_delay arr_time sched_arr_time
   <int> <int> <int>    <int>          <int>     <dbl>    <int>          <int>
 1  2013     1     1      517            515         2      830            819
 2  2013     1     1      533            529         4      850            830
 3  2013     1     1      542            540         2      923            850
 4  2013     1     1      544            545        -1     1004           1022
 5  2013     1     1      554            600        -6      812            837
 6  2013     1     1      554            558        -4      740            728
 7  2013     1     1      555            600        -5      913            854
 8  2013     1     1      557            600        -3      709            723
 9  2013     1     1      557            600        -3      838            846
10  2013     1     1      558            600        -2      753            745
# ℹ 336,766 more rows
# ℹ 11 more variables: arr_delay <dbl>, carrier <chr>, flight <int>,
#   tailnum <chr>, origin <chr>, dest <chr>, air_time <dbl>, distance <dbl>,
#   hour <dbl>, minute <dbl>, time_hour <dttm>
…
The error above can be solved by using the pick() function, which uses tidy selection inside of data masking:

count_missing <- function(df, group_vars, x_var) {
  df |> 
    group_by(pick({{ group_vars }})) |> 
    summarize(
      n_miss = sum(is.na({{ x_var }})),
      .groups = "drop"
  )
}

flights |> 
  count_missing(c(year, month, day), dep_time)

# A tibble: 365 × 4
    year month   day n_miss
   <int> <int> <int>  <int>
 1  2013     1     1      4
 2  2013     1     2      8
 3  2013     1     3     10
 4  2013     1     4      6
 5  2013     1     5      3
 6  2013     1     6      1
 7  2013     1     7      3
 8  2013     1     8      4
 9  2013     1     9      5
10  2013     1    10      3
# ℹ 355 more rows
…
Warning in is.na(x) & is.na(y): longer object length is not a multiple of
shorter object length

[1] 2

Here is a way to get not_cancelled flights in the flights dataset:

not_cancelled <- flights |> 
  filter(!is.na(dep_delay), !is.na(arr_delay))
not_cancelled

# A tibble: 327,346 × 19
    year month   day dep_time sched_dep_time dep_delay arr_time sched_arr_time
   <int> <int> <int>    <int>          <int>     <dbl>    <int>          <int>
 1  2013     1     1      517            515         2      830            819
 2  2013     1     1      533            529         4      850            830
 3  2013     1     1      542            540         2      923            850
 4  2013     1     1      544            545        -1     1004           1022
 5  2013     1     1      554            600        -6      812            837
 6  2013     1     1      554            558        -4      740            728
 7  2013     1     1      555            600        -5      913            854
 8  2013     1     1      557            600        -3      709            723
 9  2013     1     1      557            600        -3      838            846
10  2013     1     1      558            600        -2      753            745
# ℹ 327,336 more rows
# ℹ 11 more variables: arr_delay <dbl>, carrier <chr>, flight <int>,
#   tailnum <chr>, origin <chr>, dest <chr>, air_time <dbl>, distance <dbl>,
#   hour <dbl>, minute <dbl>, time_hour <dttm>
…
